{
  "images" : [
    {
      "idiom" : "iphone",
      "orientation" : "portrait",
      "filename" : "default-portrait-1792h@3x.png",
      "subtype" : "1792h",
      "minimum-system-version" : "12.0",
      "scale" : "2x",
      "extent" : "full-screen"
    },
    {
      "orientation" : "landscape",
      "extent" : "full-screen",
      "scale" : "2x",
      "idiom" : "iphone",
      "minimum-system-version" : "12.0",
      "filename" : "default-landscape-1792h@3x.png",
      "subtype" : "1792h"
    },
    {
      "extent" : "full-screen",
      "minimum-system-version" : "12.0",
      "idiom" : "iphone",
      "scale" : "3x",
      "subtype" : "2688h",
      "filename" : "default-portrait-2688h@3x.png",
      "orientation" : "portrait"
    },
    {
      "orientation" : "landscape",
      "minimum-system-version" : "12.0",
      "scale" : "3x",
      "idiom" : "iphone",
      "subtype" : "2688h",
      "extent" : "full-screen",
      "filename" : "default-landscape-2688h@3x.png"
    },
    {
      "extent" : "full-screen",
      "filename" : "default-portrait-2436h@3x.png",
      "scale" : "3x",
      "idiom" : "iphone",
      "orientation" : "portrait",
      "subtype" : "2436h",
      "minimum-system-version" : "11.0"
    },
    {
      "filename" : "default-landscape-2436h@3x.png",
      "extent" : "full-screen",
      "idiom" : "iphone",
      "minimum-system-version" : "11.0",
      "scale" : "3x",
      "subtype" : "2436h",
      "orientation" : "landscape"
    },
    {
      "extent" : "full-screen",
      "filename" : "default.png",
      "orientation" : "portrait",
      "scale" : "1x",
      "idiom" : "iphone"
    },
    {
      "filename" : "default@2x.png",
      "minimum-system-version" : "7.0",
      "scale" : "2x",
      "idiom" : "iphone",
      "extent" : "full-screen",
      "orientation" : "portrait"
    },
    {
      "filename" : "default-568h@2x.png",
      "scale" : "2x",
      "idiom" : "iphone",
      "extent" : "full-screen",
      "subtype" : "retina4",
      "orientation" : "portrait"
    },
    {
      "orientation" : "portrait",
      "scale" : "2x",
      "idiom" : "iphone",
      "filename" : "default-568h@2x.png",
      "minimum-system-version" : "7.0",
      "extent" : "full-screen",
      "subtype" : "retina4"
    },
    {
      "extent" : "full-screen",
      "scale" : "2x",
      "orientation" : "portrait",
      "idiom" : "iphone",
      "filename" : "default@2x.png"
    },
    {
      "scale" : "1x",
      "filename" : "default~ipad.png",
      "idiom" : "ipad",
      "extent" : "to-status-bar",
      "orientation" : "portrait"
    },
    {
      "idiom" : "ipad",
      "extent" : "to-status-bar",
      "scale" : "2x",
      "orientation" : "portrait",
      "filename" : "default~ipad@2x.png"
    },
    {
      "orientation" : "landscape",
      "filename" : "default~ipad~landscape.png",
      "scale" : "1x",
      "extent" : "to-status-bar",
      "idiom" : "ipad"
    },
    {
      "idiom" : "ipad",
      "orientation" : "landscape",
      "scale" : "2x",
      "extent" : "to-status-bar",
      "filename" : "default~ipad~landscape@2x.png"
    },
    {
      "minimum-system-version" : "7.0",
      "extent" : "full-screen",
      "idiom" : "ipad",
      "orientation" : "portrait",
      "scale" : "1x",
      "filename" : "default~ipad~nostatusbar.png"
    },
    {
      "orientation" : "portrait",
      "idiom" : "ipad",
      "filename" : "default~ipad~nostatusbar.png",
      "scale" : "1x",
      "extent" : "full-screen"
    },
    {
      "filename" : "default~ipad~nostatusbar@2x.png",
      "orientation" : "portrait",
      "scale" : "2x",
      "idiom" : "ipad",
      "minimum-system-version" : "7.0",
      "extent" : "full-screen"
    },
    {
      "orientation" : "portrait",
      "filename" : "default~ipad~nostatusbar@2x.png",
      "scale" : "2x",
      "idiom" : "ipad",
      "extent" : "full-screen"
    },
    {
      "orientation" : "landscape",
      "filename" : "default~ipad~landscape~nostatusbar.png",
      "extent" : "full-screen",
      "scale" : "1x",
      "minimum-system-version" : "7.0",
      "idiom" : "ipad"
    },
    {
      "idiom" : "ipad",
      "filename" : "default~ipad~landscape~nostatusbar.png",
      "extent" : "full-screen",
      "scale" : "1x",
      "orientation" : "landscape"
    },
    {
      "filename" : "default~ipad~landscape~nostatusbar@2x.png",
      "scale" : "2x",
      "extent" : "full-screen",
      "idiom" : "ipad",
      "orientation" : "landscape",
      "minimum-system-version" : "7.0"
    },
    {
      "scale" : "2x",
      "filename" : "default~ipad~landscape~nostatusbar@2x.png",
      "extent" : "full-screen",
      "orientation" : "landscape",
      "idiom" : "ipad"
    },
    {
      "extent" : "full-screen",
      "scale" : "3x",
      "filename" : "default-portrait-736h@3x.png",
      "orientation" : "portrait",
      "idiom" : "iphone",
      "subtype" : "736h",
      "minimum-system-version" : "8.0"
    },
    {
      "minimum-system-version" : "8.0",
      "extent" : "full-screen",
      "idiom" : "iphone",
      "filename" : "default-landscape-736h@3x.png",
      "orientation" : "landscape",
      "scale" : "3x",
      "subtype" : "736h"
    },
    {
      "filename" : "default-667h@2x.png",
      "scale" : "2x",
      "idiom" : "iphone",
      "minimum-system-version" : "8.0",
      "subtype" : "667h",
      "orientation" : "portrait",
      "extent" : "full-screen"
    }
  ],
  "info" : {
    "version" : 1,
    "author" : "xcode"
  }
}